qpWave: parameter file: /media/paleogenet/DATA/Data/Users/Melanie/qpAdm/qpWave//wave/.tmp/00itnIXs/Params
### THE INPUT PARAMETERS
##PARAMETER NAME: VALUE
genotypename: /media/paleogenet/DATA/Data/Users/Melanie/qpAdm/Ancestra1240_auto_anciens.geno
snpname: /media/paleogenet/DATA/Data/Users/Melanie/qpAdm/Ancestra1240_auto_anciens.snp
indivname: /media/paleogenet/DATA/Data/Users/Melanie/qpAdm/Ancestra1240_auto_ech3.ind
popleft: /media/paleogenet/DATA/Data/Users/Melanie/qpAdm/qpWave//wave/.tmp/00itnIXs/Left
popright: /media/paleogenet/DATA/Data/Users/Melanie/qpAdm/qpWave//wave/.tmp/00itnIXs/Right
details: YES
allsnps: YES
## qpWave version: 600

left pops:
fictif3
fictif4

right pops:
Mbuti.DG
Ethiopia_4500BP_published.SG
CHG
Russia_EHG
Russia_Ust_Ishim_HG_published.DG
Czech_Vestonice16
Russia_MA1_HG.SG
Israel_Natufian
Jordan_PPNB_published
Iberia_ElMiron
Anatolia_N_published
Morocco_LN.SG
WHG
Iran_GanjDareh_N
Russia_EBA_Yamnaya_Samara

  0                CLR25    1
  1                CLR27    1
  2             Mbuti.DG    4
  3 Ethiopia_4500BP_published.SG    1
  4                  CHG    2
  5           Russia_EHG    1
  6 Russia_Ust_Ishim_HG_published.DG    1
  7    Czech_Vestonice16    1
  8     Russia_MA1_HG.SG    1
  9      Israel_Natufian    3
 10 Jordan_PPNB_published    4
 11       Iberia_ElMiron    1
 12 Anatolia_N_published    8
 13        Morocco_LN.SG    3
 14                  WHG    7
 15     Iran_GanjDareh_N    8
 16 Russia_EBA_Yamnaya_Samara    9
jackknife block size:     0.050
snps: 1150471  indivs: 56
number of blocks for block jackknife: 713
dof (jackknife):   598.769
numsnps used: 1150471
f4info: 
f4rank: 0 dof:     14 chisq:    10.761 tail:                    1 dofdiff:      0 chisqdiff:     0.000 taildiff:                    1

f4info: 
f4rank: 1 dof:      0 chisq:     0.000 tail:                    1 dofdiff:     14 chisqdiff:    10.761 taildiff:          0.704691051
B:
          scale  6343.790 
Ethiopia_4500BP_published.SG    -0.391 
            CHG     0.426 
     Russia_EHG     0.450 
Russia_Ust_Ishim_HG_published.DG     0.544 
Czech_Vestonice16     1.214 
Russia_MA1_HG.SG     1.587 
Israel_Natufian     0.347 
Jordan_PPNB_published     1.835 
 Iberia_ElMiron     0.970 
Anatolia_N_published     0.922 
  Morocco_LN.SG    -0.816 
            WHG     1.339 
Iran_GanjDareh_N     0.163 
Russia_EBA_Yamnaya_Samara     1.188 
A:
          scale     1.000 
          CLR27     1.000 

## end of run
